{
    "name": "GradientSensitivity_options",
    "required": [],
    "properties": {
        "iteration":{
            "anyOf": [
				{
					"type": "null"
				},
				{
					"type": "integer",
					"minimum": 0
				}
			],
            "default": null
        },
        "scale_gradients": {
            "type": "boolean",
            "default": false
        },
        "compute_missing_gradients": {
            "type": "boolean",
            "default": false
        }
    },
    "additionalProperties": false,
    "$schema": "http://json-schema.org/draft-04/schema",
    "type": "object"
}
